\relax 
\pgfsyspdfmark {pgfid2}{19579138}{27690495}
\pgfsyspdfmark {pgfid1}{4736286}{50644704}
\@input{./Company/Description.aux}
\pgfsyspdfmark {pgfid4}{19579138}{27690495}
\pgfsyspdfmark {pgfid3}{4736286}{50644704}
\pgfsyspdfmark {pgfid6}{19579138}{27690495}
\pgfsyspdfmark {pgfid5}{4736286}{50644704}
\@input{./Company/Description2.aux}
\pgfsyspdfmark {pgfid8}{19579138}{27690495}
\pgfsyspdfmark {pgfid7}{4736286}{50644704}
\pgfsyspdfmark {pgfid10}{19579138}{27690495}
\pgfsyspdfmark {pgfid9}{4736286}{50644704}
\@input{./Jobs/SoftwareDevelopment.aux}
\pgfsyspdfmark {pgfid12}{19579138}{27690495}
\pgfsyspdfmark {pgfid11}{4736286}{50644704}
\pgfsyspdfmark {pgfid14}{19579138}{27690495}
\pgfsyspdfmark {pgfid13}{4736286}{50644704}
\pgfsyspdfmark {pgfid16}{19579138}{27690495}
\pgfsyspdfmark {pgfid15}{4736286}{50644704}
\@input{./Conclusion/Conclusion.aux}
\pgfsyspdfmark {pgfid18}{19579138}{27690495}
\pgfsyspdfmark {pgfid17}{4736286}{50644704}
\pgfsyspdfmark {pgfid20}{19579138}{27690495}
\pgfsyspdfmark {pgfid19}{4736286}{50644704}
\citation{*}
\bibdata{bibliography}
\bibcite{tw}{\citeauthoryear {{\em  Join us and do work that matters\/}}{{\em  Join us and do work that matters\/}}{{\APACyear {2018}}}}
\APACbibcite{tw}{\citeauthoryear {{\em  Join us and do work that matters\/}}{{\em  Join us and do work that matters\/}}{{\APACyear {2018}}}}
\bibcite{tbc}{\citeauthoryear {{\em  Top 10 Jobs for Computer Science Majors\/}}{{\em  Top 10 Jobs for Computer Science Majors\/}}{{\APACyear {2018}}}}
\APACbibcite{tbc}{\citeauthoryear {{\em  Top 10 Jobs for Computer Science Majors\/}}{{\em  Top 10 Jobs for Computer Science Majors\/}}{{\APACyear {2018}}}}
\bibcite{cso}{\citeauthoryear {{\em  Understanding Information Technology A Guide to IT Career Opportunities\/}}{{\em  Understanding Information Technology A Guide to IT Career Opportunities\/}}{{\APACyear {2018}}}}
\APACbibcite{cso}{\citeauthoryear {{\em  Understanding Information Technology A Guide to IT Career Opportunities\/}}{{\em  Understanding Information Technology A Guide to IT Career Opportunities\/}}{{\APACyear {2018}}}}
\bibstyle{apacite}
\pgfsyspdfmark {pgfid22}{19579138}{27690495}
\pgfsyspdfmark {pgfid21}{4736286}{50644704}
\@writefile{toc}{\contentsline {chapter}{References}{10}}
