\begin{thebibliography}{}

\bibitem [\protect \citeauthoryear {%
\APACcitebtitle {Join us and do work that matters}}{%
\APACcitebtitle {Join us and do work that matters}}{%
{\protect \APACyear {2018}}%
}]{%
tw}
\APACinsertmetastar {%
tw}%
\APACrefbtitle {Join us and do work that matters.} {Join us and do work that
  matters.}
\newblock
\APACrefYearMonthDay{2018}{}{}.
\newblock
\begin{APACrefURL} \url{https://careers.twitter.com/en.html} \end{APACrefURL}
\PrintBackRefs{\CurrentBib}

\bibitem [\protect \citeauthoryear {%
\APACcitebtitle {Top 10 Jobs for Computer Science Majors}}{%
\APACcitebtitle {Top 10 Jobs for Computer Science Majors}}{%
{\protect \APACyear {2018}}%
}]{%
tbc}
\APACinsertmetastar {%
tbc}%
\APACrefbtitle {Top 10 Jobs for Computer Science Majors.} {Top 10 jobs for
  computer science majors.}
\newblock
\APACrefYearMonthDay{2018}{}{}.
\newblock
\begin{APACrefURL}
  \url{https://www.thebalancecareers.com/top-jobs-for-computer-science-majors-2059634}
  \end{APACrefURL}
\PrintBackRefs{\CurrentBib}

\bibitem [\protect \citeauthoryear {%
\APACcitebtitle {Understanding Information Technology A Guide to IT Career
  Opportunities}}{%
\APACcitebtitle {Understanding Information Technology A Guide to IT Career
  Opportunities}}{%
{\protect \APACyear {2018}}%
}]{%
cso}
\APACinsertmetastar {%
cso}%
\APACrefbtitle {Understanding Information Technology A Guide to IT Career
  Opportunities.} {Understanding information technology a guide to it career
  opportunities.}
\newblock
\APACrefYearMonthDay{2018}{}{}.
\newblock
\begin{APACrefURL} \url{https://www.
  computerscienceonline.org/information-technology/} \end{APACrefURL}
\PrintBackRefs{\CurrentBib}

\end{thebibliography}
